[
  {
    "id": 1,
    "name": "青田牙醫診所",
    "address": "100台北市中正區福州街15號",
    "longitude": 121.53638,
    "latitude": 25.03786,
    "pictureUrl": "https://farm4.static.flickr.com/3681/12921643653_8fb3a4334d_b.jpg"
  },
  {
    "id": 2,
    "name": "榛品牙醫診所",
    "address": "100台北市中正區水源路1號",
    "longitude": 121.52161,
    "latitude": 25.00383,
    "pictureUrl": "https://www.viewtaiwan.com/upload/place/1441002970k5h3ic5gp.jpg"
  }
]
